<svg width="75" height="75" viewBox="0 0 75 75" fill="none" xmlns="http://www.w3.org/2000/svg">
<path d="M65.3362 27.4982C64.5192 26.9065 63.4485 26.7375 62.4906 27.0756L51.6717 30.6819V27.5264C51.6717 24.0327 48.8261 21.1871 45.3325 21.1871H39.5849V11.6079C39.5849 9.38211 37.7536 7.55078 35.5278 7.55078H30.062H17.8625H12.3967C10.1709 7.55078 8.3396 9.38211 8.3396 11.6079V63.3641C8.3396 65.5898 10.1709 67.4212 12.3967 67.4212H35.556C37.7817 67.4212 39.6131 65.5898 39.6131 63.3641V53.7848H45.3606C48.8542 53.7848 51.6999 50.9392 51.6999 47.4456V44.3182L62.5188 47.9246C63.4767 48.2345 64.5473 48.0936 65.3644 47.5019C66.1814 46.9103 66.6604 45.9524 66.6604 44.9381V30.0057C66.6604 29.0196 66.1533 28.0899 65.3362 27.4982ZM36.8802 63.3641C36.8802 64.0684 36.2885 64.6601 35.5842 64.6601H12.3967C11.6923 64.6601 11.1007 64.0684 11.1007 63.3641V11.6361C11.1007 10.9317 11.6923 10.34 12.3967 10.34H16.5101V11.6361C16.5101 12.3968 17.1018 13.0166 17.8907 13.0166H30.0902C30.8509 13.0166 31.4707 12.4249 31.4707 11.6361V10.34H35.5278C36.2322 10.34 36.8238 10.9317 36.8238 11.6361V21.2153H25.4132C21.9196 21.2153 19.074 24.0609 19.074 27.5545V47.5019C19.074 50.9956 21.9196 53.8412 25.4132 53.8412H36.852V63.3641H36.8802ZM30.6255 43.9802C32.006 44.9944 33.6683 45.5579 35.4151 45.5579C37.3028 45.5579 39.0496 44.9099 40.402 43.8111C43.163 45.6424 43.4448 49.2769 43.3884 51.1083H28.0334C27.9489 49.3333 28.1461 45.8678 30.6255 43.9802ZM35.4151 42.8814C34.0064 42.8814 32.6822 42.346 31.6679 41.3599C30.5973 40.3457 30.0338 38.9651 30.0338 37.5001C30.0338 34.5418 32.4568 32.1188 35.4151 32.1188C38.3734 32.1188 40.7964 34.5418 40.7964 37.5001C40.7964 40.4584 38.3734 42.8814 35.4151 42.8814ZM63.9839 44.9663C63.9839 45.1635 63.8712 45.3043 63.7866 45.3607C63.7021 45.417 63.5612 45.5016 63.364 45.417L49.0233 40.6274V47.4738C49.0233 49.2488 47.7555 50.7138 46.0932 51.0519C46.1495 48.6853 45.7269 44.3182 42.2333 41.7826C43.0222 40.5429 43.473 39.0778 43.473 37.5001C43.473 33.0485 39.8666 29.4422 35.4151 29.4422C30.9636 29.4422 27.3573 33.0485 27.3573 37.5001C27.3573 39.1624 27.8362 40.7401 28.766 42.0643C25.5823 44.6282 25.2724 48.8261 25.3569 51.1083C23.3847 51.0801 21.7787 49.446 21.7787 47.4738V27.5264C21.7787 25.526 23.4129 23.8919 25.4132 23.8919H45.3606C47.361 23.8919 48.9951 25.526 48.9951 27.5264V34.3727L63.3358 29.5831C63.5331 29.5267 63.7021 29.5831 63.7585 29.6394C63.843 29.6958 63.9557 29.8085 63.9557 30.0339V44.9663H63.9839Z" fill="#ED1C24"/>
<path d="M19.0741 61.195C19.0741 61.9557 19.6658 62.5474 20.4546 62.5755H27.5546C28.3434 62.5755 28.9351 61.9275 28.9351 61.195C28.9351 60.4061 28.2871 59.8145 27.5546 59.8145H20.4546C19.6658 59.8145 19.0741 60.4343 19.0741 61.195Z" fill="#ED1C24"/>
</svg>
