<svg width="75" height="75" viewBox="0 0 75 75" fill="none" xmlns="http://www.w3.org/2000/svg">
<path d="M35.571 37.5V43.9286L32.3567 46.0714C31.4996 46.6071 31.2853 47.7857 31.821 48.6429C32.3567 49.5 33.5353 49.7143 34.3924 49.1786L37.3924 47.1429L40.3924 49.1786C41.2496 49.7143 42.4281 49.5 42.9638 48.6429C43.4996 47.7857 43.2853 46.6071 42.4281 46.0714L39.2138 43.9286V37.5L46.1781 39.8571C47.1424 40.1786 48.2138 39.6429 48.5353 38.6786C48.8567 37.7143 48.321 36.6429 47.3567 36.3214L39.1067 33.5357V27.4286C39.1067 26.3571 38.2496 25.5 37.1781 25.5C36.1067 25.5 35.2496 26.3571 35.2496 27.4286V33.5357L26.9996 36.3214C26.0353 36.6429 25.4996 37.7143 25.821 38.6786C26.1424 39.6429 27.2138 40.1786 28.1781 39.8571L35.571 37.5Z" fill="#ED1C24"/>
<path d="M49.8217 68.7857H25.1789C21.3217 68.7857 18.8574 65.3571 18.8574 62.1428V12.8571C18.8574 9.10709 21.536 6.21423 25.1789 6.21423H49.9289C53.4646 6.21423 56.2503 8.99995 56.2503 12.8571V62.1428C56.1431 65.9999 53.4646 68.7857 49.8217 68.7857ZM25.1789 9.21423C23.2503 9.21423 21.8574 10.7142 21.8574 12.8571V62.1428C21.8574 63.8571 23.1431 65.7857 25.1789 65.7857H49.9289C51.8574 65.7857 53.2503 64.2857 53.2503 62.1428V12.8571C53.2503 10.8214 51.8574 9.21423 49.9289 9.21423H25.1789Z" fill="#ED1C24"/>
<path d="M42.1076 62.5714H32.7861C31.929 62.5714 31.2861 61.9286 31.2861 61.0714C31.2861 60.2143 31.929 59.5714 32.7861 59.5714H42.1076C42.9647 59.5714 43.6076 60.2143 43.6076 61.0714C43.6076 61.9286 42.9647 62.5714 42.1076 62.5714Z" fill="#ED1C24"/>
<path d="M43.7144 11.2501H31.2859C30.4287 11.2501 29.6787 10.5001 29.6787 9.64291C29.6787 8.78577 30.4287 8.03577 31.2859 8.03577H43.7144C44.5716 8.03577 45.3216 8.78577 45.3216 9.64291C45.3216 10.5001 44.5716 11.2501 43.7144 11.2501Z" fill="#ED1C24"/>
</svg>
