<svg width="20" height="20" viewBox="0 0 20 20" fill="none" xmlns="http://www.w3.org/2000/svg">
<path fill-rule="evenodd" clip-rule="evenodd" d="M9.99961 3.12737C6.20391 3.12737 3.12688 6.20439 3.12688 10.0001C3.12688 13.7958 6.20391 16.8728 9.99961 16.8728C13.7953 16.8728 16.8723 13.7958 16.8723 10.0001C16.8723 6.20439 13.7953 3.12737 9.99961 3.12737ZM1.59961 10.0001C1.59961 5.36091 5.36042 1.6001 9.99961 1.6001C14.6388 1.6001 18.3996 5.36091 18.3996 10.0001C18.3996 14.6393 14.6388 18.4001 9.99961 18.4001C5.36042 18.4001 1.59961 14.6393 1.59961 10.0001Z" fill="black" fill-opacity="0.38"/>
<path fill-rule="evenodd" clip-rule="evenodd" d="M9.99996 4.65479C10.4217 4.65479 10.7636 4.99668 10.7636 5.41842V9.52829L13.396 10.8445C13.7732 11.0331 13.9261 11.4918 13.7375 11.869C13.5489 12.2462 13.0902 12.3991 12.713 12.2105L9.65846 10.6833C9.39975 10.5539 9.23633 10.2895 9.23633 10.0002V5.41842C9.23633 4.99668 9.57822 4.65479 9.99996 4.65479Z" fill="black" fill-opacity="0.38"/>
</svg>
