<svg width="60" height="60" viewBox="0 0 60 60" fill="none" xmlns="http://www.w3.org/2000/svg">
<path d="M23.7742 14.3758V21.4318H16.7998V29.9998H23.7742V55.1998H34.0306V29.9998H40.1844L40.7998 21.6838H34.0306V18.1558C34.0306 16.1398 34.4408 15.3838 35.8767 15.3838H40.7998V4.7998H32.5947C26.4408 4.7998 23.7742 8.07581 23.7742 14.3758Z" fill="#ED1C24"/>
</svg>
