<svg width="75" height="75" viewBox="0 0 75 75" fill="none" xmlns="http://www.w3.org/2000/svg">
<path d="M62.5205 34.7837H12.4792C11.4436 34.7864 10.4511 35.2038 9.71884 35.9448C8.98655 36.6857 8.57397 37.6898 8.57129 38.7376V61.3929C8.57662 62.4399 8.99006 63.4425 9.72178 64.1828C10.4535 64.9231 11.4444 65.3414 12.4792 65.3468H62.5205C63.5553 65.3414 64.5462 64.9231 65.2779 64.1828C66.0097 63.4425 66.4231 62.4399 66.4284 61.3929V38.7376C66.4258 37.6898 66.0132 36.6857 65.2809 35.9448C64.5486 35.2038 63.5562 34.7864 62.5205 34.7837ZM63.7792 61.3929C63.7765 61.7298 63.6431 62.0522 63.4076 62.2904C63.1721 62.5287 62.8535 62.6637 62.5205 62.6664H12.4792C12.1462 62.6637 11.8276 62.5287 11.5921 62.2904C11.3567 62.0522 11.2232 61.7298 11.2205 61.3929V57.3569H12.4792C12.6572 57.3583 12.8338 57.3235 12.9983 57.2546C13.1628 57.1857 13.312 57.084 13.437 56.9557C13.5619 56.8273 13.6601 56.6749 13.7258 56.5074C13.7914 56.3399 13.8231 56.1608 13.819 55.9807V44.0471C13.8204 43.8687 13.7867 43.6918 13.7198 43.5267C13.6529 43.3616 13.5543 43.2117 13.4296 43.0855C13.3049 42.9593 13.1567 42.8595 12.9935 42.7919C12.8303 42.7243 12.6555 42.6901 12.4792 42.6915H11.2205V38.7376C11.231 38.4061 11.3679 38.0915 11.6026 37.8598C11.8372 37.6282 12.1514 37.4974 12.4792 37.4949H62.5205C62.8553 37.4976 63.1754 37.6341 63.4112 37.8745C63.6469 38.115 63.7792 38.44 63.7792 38.7787V61.3929Z" fill="#ED1C24"/>
<path d="M60.4092 54.8716C60.2329 54.8729 60.0581 54.8388 59.8949 54.7712C59.7317 54.7035 59.5835 54.6037 59.4588 54.4776C59.3341 54.3514 59.2355 54.2014 59.1686 54.0363C59.1018 53.8712 59.068 53.6944 59.0694 53.5159V46.5735C59.0694 46.214 59.2105 45.8692 59.4618 45.6149C59.7131 45.3607 60.0539 45.2179 60.4092 45.2179C60.7646 45.2179 61.1054 45.3607 61.3566 45.6149C61.6079 45.8692 61.7491 46.214 61.7491 46.5735V53.5159C61.7464 53.8747 61.6044 54.2179 61.3537 54.4716C61.103 54.7252 60.7638 54.8689 60.4092 54.8716Z" fill="#ED1C24"/>
<path d="M31.9987 48.0832H29.3799V44.0882C29.3786 43.9098 29.4123 43.7329 29.4792 43.5678C29.546 43.4027 29.6447 43.2527 29.7693 43.1266C29.894 43.0004 30.0423 42.9006 30.2054 42.833C30.3686 42.7654 30.5434 42.7312 30.7198 42.7326H34.6784V45.413H31.9987V48.0832Z" fill="#ED1C24"/>
<path d="M45.6206 48.0833H43.0018V45.4131H40.3525V42.7327H44.301C44.6529 42.7381 44.9885 42.8833 45.2354 43.1369C45.4823 43.3906 45.6206 43.7323 45.6206 44.0883V48.0833Z" fill="#ED1C24"/>
<path d="M34.6477 57.3569H30.6586C30.4805 57.3584 30.304 57.3236 30.1394 57.2547C29.9749 57.1858 29.8257 57.0841 29.7008 56.9558C29.5758 56.8274 29.4776 56.675 29.412 56.5075C29.3463 56.34 29.3146 56.1609 29.3187 55.9808V52.0063H31.9578V54.6765H34.6071V57.3569H34.6477Z" fill="#ED1C24"/>
<path d="M44.301 57.3569H40.3525V54.6765H43.0018V52.0063H45.6206V55.9808C45.6233 56.1588 45.5913 56.3356 45.5264 56.5011C45.4615 56.6667 45.3651 56.8176 45.2426 56.9454C45.12 57.0732 44.9738 57.1753 44.8123 57.2459C44.6507 57.3165 44.477 57.3543 44.301 57.3569Z" fill="#ED1C24"/>
<path d="M37.5002 53.516C36.8312 53.516 36.1773 53.3152 35.6213 52.9389C35.0652 52.5627 34.632 52.028 34.3764 51.4025C34.1209 50.777 34.0546 50.0888 34.1858 49.4252C34.3171 48.7615 34.64 48.1522 35.1137 47.6743C35.5874 47.1964 36.1907 46.8715 36.847 46.7407C37.5033 46.6099 38.1833 46.6791 38.8007 46.9396C39.4182 47.2 39.9454 47.6399 40.3155 48.2036C40.6857 48.7674 40.8823 49.4296 40.8803 50.1064C40.8803 50.555 40.7928 50.9992 40.6228 51.4136C40.4528 51.8279 40.2036 52.2043 39.8896 52.521C39.5756 52.8377 39.2029 53.0887 38.7929 53.2594C38.3829 53.4302 37.9436 53.5174 37.5002 53.516ZM37.5002 49.3259C37.3556 49.3259 37.2143 49.3693 37.0942 49.4505C36.974 49.5318 36.8803 49.6472 36.825 49.7824C36.7697 49.9175 36.7552 50.0662 36.7834 50.2096C36.8116 50.353 36.8812 50.4848 36.9834 50.5882C37.0856 50.6916 37.2158 50.762 37.3576 50.7906C37.4994 50.8191 37.6463 50.8044 37.7799 50.7485C37.9134 50.6925 38.0275 50.5977 38.1078 50.4761C38.1881 50.3545 38.231 50.2116 38.231 50.0653C38.2386 49.9663 38.225 49.8667 38.1909 49.7735C38.1569 49.6803 38.1033 49.5956 38.0339 49.5254C37.9644 49.4551 37.8808 49.4009 37.7886 49.3664C37.6965 49.332 37.5981 49.3182 37.5002 49.3259Z" fill="#ED1C24"/>
<path d="M41.2758 25.9722C40.9494 25.9677 40.6357 25.8436 40.3927 25.623C40.262 25.5057 40.1555 25.3635 40.0791 25.2045C40.0028 25.0456 39.9581 24.8729 39.9478 24.6965C39.9374 24.52 39.9615 24.3432 40.0187 24.1762C40.0759 24.0092 40.165 23.8552 40.2811 23.7231C40.8683 23.0311 41.1922 22.1498 41.1946 21.2378C41.1938 20.634 41.048 20.0394 40.7699 19.5052C40.4917 18.971 40.0895 18.5132 39.5978 18.1711C39.1061 17.8289 38.5396 17.6128 37.947 17.5412C37.3545 17.4695 36.7536 17.5446 36.196 17.7599C35.6385 17.9753 35.141 18.3244 34.7463 18.7773C34.3517 19.2301 34.0716 19.7732 33.9303 20.3598C33.7889 20.9465 33.7905 21.559 33.9349 22.1449C34.0793 22.7307 34.3622 23.2723 34.7592 23.7231C34.9935 23.9955 35.1111 24.3508 35.0864 24.711C35.0616 25.0711 34.8965 25.4066 34.6273 25.6436C34.494 25.7609 34.3392 25.8505 34.1716 25.9073C34.0041 25.9641 33.8272 25.9869 33.6509 25.9745C33.2949 25.9495 32.9634 25.7824 32.7292 25.5101C31.7266 24.3331 31.1722 22.8326 31.166 21.2789C31.166 19.582 31.8323 17.9546 33.0182 16.7547C34.2041 15.5548 35.8126 14.8807 37.4897 14.8807C39.1668 14.8807 40.7753 15.5548 41.9612 16.7547C43.1471 17.9546 43.8134 19.582 43.8134 21.2789C43.8035 22.8338 43.2456 24.3341 42.2401 25.5101C42.1192 25.6498 41.9712 25.7629 41.8054 25.8424C41.6395 25.9219 41.4592 25.9661 41.2758 25.9722Z" fill="#ED1C24"/>
<path d="M30.1615 29.772C29.7984 29.7624 29.4531 29.6116 29.1972 29.3509C27.6319 27.7068 26.5792 25.6332 26.1701 23.3883C25.761 21.1433 26.0137 18.8262 26.8965 16.7254C27.7794 14.6246 29.2536 12.833 31.1354 11.5737C33.0172 10.3143 35.2236 9.64282 37.4799 9.64282C39.7361 9.64282 41.9425 10.3143 43.8243 11.5737C45.7062 12.833 47.1803 14.6246 48.0632 16.7254C48.9461 18.8262 49.1987 21.1433 48.7896 23.3883C48.3806 25.6332 47.3279 27.7068 45.7626 29.3509C45.6413 29.4784 45.4964 29.5804 45.3361 29.6512C45.1758 29.722 45.0033 29.7601 44.8285 29.7635C44.6536 29.7668 44.4799 29.7353 44.3171 29.6707C44.1543 29.606 44.0056 29.5096 43.8797 29.3869C43.7537 29.2642 43.6529 29.1175 43.5829 28.9554C43.513 28.7932 43.4753 28.6187 43.472 28.4418C43.4687 28.2649 43.4998 28.0891 43.5637 27.9244C43.6276 27.7596 43.7229 27.6093 43.8442 27.4818C45.43 25.8333 46.3122 23.6203 46.3005 21.3199C46.3047 19.856 45.9536 18.4133 45.2782 17.1187C44.6028 15.824 43.6236 14.7169 42.4266 13.8944C41.2296 13.0719 39.8514 12.5593 38.4129 12.4014C36.9744 12.2436 35.5196 12.4453 34.1762 12.989C32.8327 13.5327 31.6417 14.4018 30.7076 15.5198C29.7736 16.6378 29.125 17.9708 28.8188 19.4016C28.5127 20.8324 28.5583 22.3174 28.9516 23.7262C29.345 25.135 30.0741 26.4246 31.075 27.4818C31.3217 27.7371 31.4599 28.0799 31.4599 28.4369C31.4599 28.794 31.3217 29.1368 31.075 29.392C30.9586 29.518 30.8167 29.6171 30.6591 29.6827C30.5015 29.7482 30.3318 29.7787 30.1615 29.772Z" fill="#ED1C24"/>
<path d="M37.9771 22.8297C38.3037 22.7277 38.5889 22.5216 38.7902 22.2421C38.9914 21.9626 39.0979 21.6247 39.0936 21.2789C39.0941 20.9776 39.0122 20.682 38.8569 20.4249C38.7017 20.1677 38.4791 19.9591 38.2139 19.822C37.9487 19.685 37.6511 19.6248 37.3542 19.6483C37.0573 19.6717 36.7726 19.7778 36.5316 19.9548C36.2906 20.1318 36.1027 20.3729 35.9887 20.6512C35.8747 20.9296 35.8391 21.2345 35.8857 21.5321C35.9324 21.8297 36.0595 22.1084 36.2531 22.3374C36.4466 22.5664 36.699 22.7368 36.9824 22.8297L33.1455 33.0995H35.9876L37.5 29.1148L38.9921 33.0687H41.8342L37.9771 22.8297Z" fill="#ED1C24"/>
</svg>
