<svg width="30" height="30" viewBox="0 0 30 30" fill="none" xmlns="http://www.w3.org/2000/svg">
<path d="M27.5 7.5H24.5C24.875 6.875 25 6.25 25 5.625C25 3.25 23 1.25 20.625 1.25C17.75 1.25 16 3.25 15 5.125C14 3.25 12.25 1.25 9.375 1.25C7 1.25 5 3.25 5 5.625C5 6.25 5.125 6.875 5.5 7.5H2.5C1.75 7.5 1.25 8 1.25 8.75V15C1.25 15.75 1.75 16.25 2.5 16.25H3.75V27.5C3.75 28.25 4.25 28.75 5 28.75H25C25.75 28.75 26.25 28.25 26.25 27.5V16.25H27.5C28.25 16.25 28.75 15.75 28.75 15V8.75C28.75 8 28.25 7.5 27.5 7.5ZM20.625 3.75C21.625 3.75 22.5 4.625 22.5 5.625C22.5 6.625 21.625 7.5 20.625 7.5H16.625C17.25 6 18.5 3.75 20.625 3.75ZM7.5 5.625C7.5 4.625 8.375 3.75 9.375 3.75C11.5 3.75 12.75 6 13.375 7.5H9.375C8.375 7.5 7.5 6.625 7.5 5.625ZM3.75 10H9.375H13.75V13.75H3.75V10ZM6.25 16.25H13.75V26.25H6.25V16.25ZM23.75 26.25H16.25V16.25H23.75V26.25ZM26.25 13.75H16.25V10H20.625H26.25V13.75Z" fill="#ED1C24"/>
</svg>
