<svg width="60" height="60" viewBox="0 0 60 60" fill="none" xmlns="http://www.w3.org/2000/svg">
<path d="M41.5456 35.002C40.9135 34.687 37.8349 33.1813 37.2616 32.9734C36.6883 32.7613 36.2683 32.6584 35.8483 33.2884C35.4346 33.9079 34.2292 35.3128 33.8659 35.7286C33.4984 36.1381 33.133 36.1696 32.5093 35.8861C31.8793 35.5711 29.857 34.9096 27.463 32.7676C25.5982 31.0981 24.3466 29.0506 23.977 28.4206C23.6116 27.7906 23.9371 27.4441 24.25 27.1291C24.5356 26.8456 24.8821 26.4046 25.1971 26.0308C25.5037 25.6507 25.6045 25.3987 25.8208 24.9892C26.0308 24.5482 25.9237 24.2017 25.7683 23.8888C25.6108 23.5738 24.3571 20.4868 23.8321 19.2562C23.3281 18.0298 22.8094 18.1852 22.4209 18.1852C22.0597 18.1537 21.6418 18.1537 21.2218 18.1537C20.8018 18.1537 20.1235 18.3091 19.5481 18.9076C18.9748 19.5376 17.3536 21.0496 17.3536 24.1051C17.3536 27.1606 19.6006 30.1216 19.9135 30.5626C20.2264 30.9721 24.334 37.2721 30.6235 39.9811C32.1229 40.6111 33.2905 40.9891 34.2019 41.302C35.7013 41.7787 37.0684 41.7115 38.1499 41.5561C39.3553 41.365 41.8606 40.042 42.3835 38.5615C42.919 37.081 42.919 35.8525 42.7615 35.569C42.6061 35.2855 42.1945 35.128 41.5645 34.8445L41.5456 35.002ZM30.1279 50.4748H30.0943C26.3773 50.4748 22.6939 49.4668 19.4788 47.5768L18.7228 47.1274L10.8478 49.1749L12.9583 41.5204L12.4564 40.7329C10.3774 37.4233 9.27281 33.6118 9.27281 29.6869C9.27281 18.2524 18.6283 8.9284 30.151 8.9284C35.7244 8.9284 40.9555 11.1019 44.8951 15.0394C48.8326 18.9433 51.004 24.1744 51.004 29.7184C50.9956 41.1508 41.638 50.4769 30.1405 50.4769L30.1279 50.4748ZM47.8918 12.0427C43.1038 7.4143 36.8038 4.7998 30.0943 4.7998C16.2721 4.7998 5.0182 16.0012 5.0119 29.7751C5.0119 34.1767 6.1648 38.4691 8.3614 42.2596L4.7998 55.1998L18.1033 51.7306C21.7699 53.7109 25.8943 54.763 30.0943 54.7693H30.1069C43.9354 54.7693 55.1935 43.5637 55.1998 29.7877C55.1998 23.1181 52.5958 16.8412 47.8603 12.1246" fill="#ED1C24"/>
</svg>
